

{
    "user": [
        { "phone": "00436502090815", "schedule_minutes": "3600", "notificationTime": "8:00", "threshold": 0.4, "role": "admin" },
        { "phone": "00436507001803", "schedule_minutes": "1" }
    ]
}