{
    "watchDog": {
        "phone": "0043650WATCHDOG"
    },
    "users": [
        {
            "phone": "+436502090815",
            "role": "admin",
            "alarmTime": "0:00",
            "alarmValue": 0.030,
            "alarmInterval_s": 86400,
            "notifiedAt": 1
        },
        {
            "phone": "+436502090815",
            "role": "admin",
            "alarmTime": "0:00",
            "alarmValue": 0.030,
            "alarmInterval_s": 86400,
            "notifiedAt": 1
        },
        {
            "phone": "+436502090815",
            "role": "user",
            "alarmTime": "08:00",
            "alarmValue": 0.031,
            "alarmInterval_s": 3600,
            "notifiedAt": 20
        },
        {
            "phone": "+43650USER2_MINUTELY",
            "role": "user",
            "alarmTime": "0:00",
            "alarmValue": 0.032,
            "alarmInterval_s": 60,
            "notifiedAt": 0
        }
    ]
}